APU/sweep/sweep_ive.vcd
$date
	Mon Aug 15 01:02:00 2016
$end
$version
	Icarus Verilog
$end
$timescale
	1ns
$end
$scope module tb $end
$scope module sweep_ive_instance $end
$var wire 1 ! _net_0 $end
$var wire 1 " _sw_e $end
$var wire 1 # _sw_exec $end
$var wire 4 $ _sw_lencntr [3:0] $end
$var wire 1 % _sw_m_clock $end
$var wire 1 & _sw_n $end
$var wire 3 ' _sw_p [2:0] $end
$var wire 1 ( _sw_p_reset $end
$var wire 11 ) _sw_period [10:0] $end
$var wire 3 * _sw_s [2:0] $end
$var wire 1 + _sw_set $end
$var wire 1 , _sw_set_param $end
$var wire 1 - _sw_silent $end
$var wire 11 . _sw_timer_input [10:0] $end
$var wire 1 / _sw_timer_set $end
$var wire 1 0 m_clock $end
$var wire 1 1 p_reset $end
$var wire 1 2 test $end
$var reg 1 3 _reg_1 $end
$var reg 1 4 _reg_10 $end
$var reg 1 5 _reg_11 $end
$var reg 1 6 _reg_12 $end
$var reg 1 7 _reg_13 $end
$var reg 1 8 _reg_14 $end
$var reg 1 9 _reg_15 $end
$var reg 1 : _reg_16 $end
$var reg 1 ; _reg_17 $end
$var reg 1 < _reg_18 $end
$var reg 1 = _reg_19 $end
$var reg 1 > _reg_2 $end
$var reg 1 ? _reg_20 $end
$var reg 1 @ _reg_21 $end
$var reg 1 A _reg_22 $end
$var reg 1 B _reg_23 $end
$var reg 1 C _reg_24 $end
$var reg 1 D _reg_25 $end
$var reg 1 E _reg_3 $end
$var reg 1 F _reg_4 $end
$var reg 1 G _reg_5 $end
$var reg 1 H _reg_6 $end
$var reg 1 I _reg_7 $end
$var reg 1 J _reg_8 $end
$var reg 1 K _reg_9 $end
$var reg 10 L cnt [9:0] $end
$scope module sw $end
$var wire 1 M _net_0 $end
$var wire 1 N _net_1 $end
$var wire 1 O _net_10 $end
$var wire 1 P _net_11 $end
$var wire 11 Q _net_2 [10:0] $end
$var wire 1 R _net_3 $end
$var wire 1 S _net_4 $end
$var wire 1 T _net_5 $end
$var wire 1 U _net_6 $end
$var wire 1 V _net_7 $end
$var wire 1 W _net_8 $end
$var wire 1 X _net_9 $end
$var wire 1 " e $end
$var wire 1 # exec $end
$var wire 4 Y lencntr [3:0] $end
$var wire 1 % m_clock $end
$var wire 1 & n $end
$var wire 3 Z p [2:0] $end
$var wire 1 ( p_reset $end
$var wire 11 [ period [10:0] $end
$var wire 3 \ s [2:0] $end
$var wire 1 + set $end
$var wire 1 , set_param $end
$var wire 1 - silent $end
$var wire 11 ] timer_input [10:0] $end
$var wire 1 / timer_set $end
$var reg 1 ^ e_r $end
$var reg 1 _ n_r $end
$var reg 3 ` p_r [2:0] $end
$var reg 12 a period_r [11:0] $end
$var reg 3 b pp [2:0] $end
$var reg 3 c s_r [2:0] $end
$upscope $end
$upscope $end
$upscope $end
$enddefinitions $end
#0
$dumpvars
bx c
b0 b
b1000 a
bx `
x_
0^
bx ]
bx \
b1000 [
bx Z
bx Y
xX
xW
xV
xU
xT
xS
xR
bx Q
xP
xO
xN
0M
b0 L
0K
0J
0I
0H
0G
0F
0E
0D
0C
0B
0A
0@
0?
0>
0=
0<
0;
0:
09
08
07
06
05
04
03
02
11
00
0/
bx .
0-
0,
0+
bx *
b1000 )
1(
bx '
x&
0%
bx $
0#
x"
0!
$end
#1
1%
10
#2
0%
00
0(
01
#3
b1 L
1%
10
#4
0%
00
#5
b10 L
1%
10
#6
0%
00
#7
b11 L
1%
10
#8
0%
00
#9
b100 L
1%
10
#10
0%
00
#11
b101 L
1%
10
#12
0%
00
#13
b110 L
1%
10
#14
0%
00
#15
b111 L
1%
10
#16
0%
00
#17
b1000 L
1%
10
#18
0%
00
#19
b1001 L
1%
10
#20
0%
00
#21
b1010 L
1%
10
#22
0%
00
#23
b1011 L
1%
10
#24
0%
00
#25
b1100 L
1%
10
#26
0%
00
#27
b1101 L
1%
10
#28
0%
00
#29
b1110 L
1%
10
#30
0%
00
#31
b1111 L
1%
10
#32
0%
00
#33
b10000 L
1%
10
#34
0%
00
#35
b10001 L
1%
10
#36
0%
00
#37
b10010 L
1%
10
#38
0%
00
#39
b10011 L
1%
10
#40
0%
00
#41
b10100 L
1%
10
#42
0%
00
#43
b10101 L
1%
10
#44
0%
00
#45
b10110 L
1%
10
#46
0%
00
#47
b10111 L
1%
10
#48
0%
00
#49
b11000 L
1%
10
#50
0%
00
#51
b11001 L
1%
10
#52
0%
00
#53
b11010 L
1%
10
#54
0%
00
#55
b11011 L
1%
10
#56
0%
00
#57
b11100 L
1%
10
#58
0%
00
#59
b11101 L
1%
10
#60
0%
00
#61
b11110 L
1%
10
#62
0%
00
#63
b11111 L
1%
10
#64
0%
00
#65
b100000 L
1%
10
#66
0%
00
#67
b100001 L
1%
10
#68
0%
00
#69
b100010 L
1%
10
#70
0%
00
#71
b100011 L
1%
10
#72
0%
00
#73
b100100 L
1%
10
#74
0%
00
#75
b100101 L
1%
10
#76
0%
00
#77
b100110 L
1%
10
#78
0%
00
#79
b100111 L
1%
10
#80
0%
00
#81
b101000 L
1%
10
#82
0%
00
#83
b101001 L
1%
10
#84
0%
00
#85
b101010 L
1%
10
#86
0%
00
#87
b101011 L
1%
10
#88
0%
00
#89
b101100 L
1%
10
#90
0%
00
#91
b101101 L
1%
10
#92
0%
00
#93
b101110 L
1%
10
#94
0%
00
#95
b101111 L
1%
10
#96
0%
00
#97
b110000 L
1%
10
#98
0%
00
#99
b110001 L
1%
10
#100
0%
00
#101
b110010 L
1%
10
#102
0%
00
#103
b110011 L
1%
10
#104
0%
00
#105
b110100 L
1%
10
#106
0%
00
#107
b110101 L
1%
10
#108
0%
00
#109
b110110 L
1%
10
#110
0%
00
#111
b110111 L
1%
10
#112
0%
00
#113
b111000 L
1%
10
#114
0%
00
#115
b111001 L
1%
10
#116
0%
00
#117
b111010 L
1%
10
#118
0%
00
#119
b111011 L
1%
10
#120
0%
00
#121
b111100 L
1%
10
#122
0%
00
#123
b111101 L
1%
10
#124
0%
00
#125
b111110 L
1%
10
#126
0%
00
#127
b111111 L
1%
10
#128
0%
00
#129
b1000000 L
1%
10
#130
0%
00
#131
b1000001 L
1%
10
#132
0%
00
#133
b1000010 L
1%
10
#134
0%
00
#135
b1000011 L
1%
10
#136
0%
00
#137
b1000100 L
1%
10
#138
0%
00
#139
b1000101 L
1%
10
#140
0%
00
#141
b1000110 L
1%
10
#142
0%
00
#143
b1000111 L
1%
10
#144
0%
00
#145
b1001000 L
1%
10
#146
0%
00
#147
b1001001 L
1%
10
#148
0%
00
#149
b1001010 L
1%
10
#150
0%
00
#151
b1001011 L
1%
10
#152
0%
00
#153
b1001100 L
1%
10
#154
0%
00
#155
b1001101 L
1%
10
#156
0%
00
#157
b1001110 L
1%
10
#158
0%
00
#159
b1001111 L
1%
10
#160
0%
00
#161
b1010000 L
1%
10
#162
0%
00
#163
b1010001 L
1%
10
#164
0%
00
#165
b1010010 L
1%
10
#166
0%
00
#167
b1010011 L
1%
10
#168
0%
00
#169
b1010100 L
1%
10
#170
0%
00
#171
b1010101 L
1%
10
#172
0%
00
#173
b1010110 L
1%
10
#174
0%
00
#175
b1010111 L
1%
10
#176
0%
00
#177
b1011000 L
1%
10
#178
0%
00
#179
b1011001 L
1%
10
#180
0%
00
#181
b1011010 L
1%
10
#182
0%
00
#183
b1011011 L
1%
10
#184
0%
00
#185
b1011100 L
1%
10
#186
0%
00
#187
b1011101 L
1%
10
#188
0%
00
#189
b1011110 L
1%
10
#190
0%
00
#191
b1011111 L
1%
10
#192
0%
00
#193
b1100000 L
1%
10
#194
0%
00
#195
b1100001 L
1%
10
#196
0%
00
#197
b1100010 L
1%
10
#198
0%
00
#199
b1100011 L
1%
10
#200
0%
00
#201
1"
b1 '
b1 Z
0&
b1 *
b1 \
b1000 $
b1000 Y
b1011111101 Q
b1011111101 .
b1011111101 ]
1+
1,
b1100100 L
1!
12
1%
10
#202
0%
00
#203
x"
bx '
bx Z
x&
bx *
bx \
bx $
bx Y
bx Q
bx .
bx ]
b1011111101 )
b1011111101 [
0+
0,
b1 c
0_
b1 `
1^
b1011111101 a
b1100101 L
0!
02
1C
1%
10
#204
0%
00
#205
0R
1#
0C
1B
b1100110 L
1%
10
#206
0%
00
#207
0#
xP
xO
xX
xW
xV
xU
xT
xS
0/
xR
b1 b
b1100111 L
1A
0B
1%
10
#208
0%
00
#209
1P
0O
0X
0W
0V
0U
0T
1S
1/
1R
1#
0A
1@
b1101000 L
1%
10
#210
0%
00
#211
0#
xP
xO
xX
xW
xV
xU
xT
xS
0/
xR
b10001111011 )
b10001111011 [
b10001111011 a
b0 b
b1101001 L
1?
0@
1%
10
#212
0%
00
#213
0R
1#
0?
1=
b1101010 L
1%
10
#214
0%
00
#215
0#
xP
xO
xX
xW
xV
xU
xT
xS
0/
xR
b1 b
b1101011 L
1<
0=
1%
10
#216
0%
00
#217
1P
0O
0X
0W
0V
0U
0T
1S
1/
1R
1#
0<
1;
b1101100 L
1%
10
#218
0%
00
#219
0#
xP
xO
xX
xW
xV
xU
xT
xS
0/
xR
b11010111000 )
b11010111000 [
b11010111000 a
b0 b
b1101101 L
1:
0;
1%
10
#220
0%
00
#221
0R
1#
0:
19
b1101110 L
1%
10
#222
0%
00
#223
xP
xO
xX
xW
xV
xU
xT
0#
xS
0/
xR
b1 b
b1101111 L
18
09
1%
10
#224
0%
00
#225
1P
0O
0X
0W
0V
0U
0T
1S
1/
1R
1#
08
17
b1110000 L
1%
10
#226
0%
00
#227
0#
xP
xO
xX
xW
xV
xU
xT
xS
0/
1N
xR
1-
1M
b1000010100 )
b1000010100 [
b101000010100 a
b0 b
b1110001 L
16
07
1%
10
#228
0%
00
#229
0R
1#
0^
06
15
b1110010 L
1%
10
#230
0%
00
#231
0#
xS
0/
xR
b1 b
b1110011 L
14
05
1%
10
#232
0%
00
#233
0S
1/
1R
1#
04
1K
b1110100 L
1%
10
#234
0%
00
#235
xS
0#
0/
xR
b0 b
b1110101 L
1J
0K
1%
10
#236
0%
00
#237
0R
1#
0J
1I
b1110110 L
1%
10
#238
0%
00
#239
0#
xR
b1 b
b1110111 L
1H
0I
1%
10
#240
0%
00
#241
0S
1/
1R
1#
0H
1G
b1111000 L
1%
10
#242
0%
00
#243
xS
0/
xR
0#
b0 b
b1111001 L
1F
0G
1%
10
#244
0%
00
#245
0R
1#
0F
1E
b1111010 L
1%
10
#246
0%
00
#247
xR
0#
b1 b
b1111011 L
1>
0E
1%
10
#248
0%
00
#249
0>
13
b1111100 L
1%
10
#250
0%
00
#251
b1111101 L
03
1%
10
